%YAML 1.1
%TAG !u! tag:unity3d.com,2011:
--- !u!74 &7400000
AnimationClip:
  m_ObjectHideFlags: 0
  m_CorrespondingSourceObject: {fileID: 0}
  m_PrefabInstance: {fileID: 0}
  m_PrefabAsset: {fileID: 0}
  m_Name: Checkout
  serializedVersion: 6
  m_Legacy: 0
  m_Compressed: 0
  m_UseHighQualityCurve: 1
  m_RotationCurves: []
  m_CompressedRotationCurves: []
  m_EulerCurves: []
  m_PositionCurves: []
  m_ScaleCurves: []
  m_FloatCurves: []
  m_PPtrCurves:
  - curve:
    - time: 0
      value: {fileID: 21300000, guid: 0211186056430794d92283c51a285552, type: 3}
    - time: 0.083333336
      value: {fileID: 21300000, guid: 8455c36c9cd013a43a18038d28db6753, type: 3}
    - time: 0.16666667
      value: {fileID: 21300000, guid: d51b659b9cfd3104881ec14c3ea31347, type: 3}
    - time: 0.25
      value: {fileID: 21300000, guid: c3d4aaf6d61877f4e9e9ab808e76c015, type: 3}
    - time: 0.33333334
      value: {fileID: 21300000, guid: 5394604c359106545b2afbc11244f67b, type: 3}
    - time: 0.41666666
      value: {fileID: 21300000, guid: 751e5e033cdb2434e9eb2979eda50eae, type: 3}
    - time: 0.5
      value: {fileID: 21300000, guid: 55deef95de3f751448bc208a281a2c32, type: 3}
    - time: 0.5833333
      value: {fileID: 21300000, guid: cdcee23f95cf9bb48963cca514dc33b4, type: 3}
    - time: 0.6666667
      value: {fileID: 21300000, guid: 6c2b01b72c7e7eb439c85654e842ead8, type: 3}
    - time: 0.75
      value: {fileID: 21300000, guid: 996c80bbe61c1d14e83995528fedc201, type: 3}
    - time: 0.8333333
      value: {fileID: 21300000, guid: 1c416d55b101e104e97d9203111681b7, type: 3}
    - time: 0.9166667
      value: {fileID: 21300000, guid: 253d4eeb75188a648b160f3c0f8a3271, type: 3}
    - time: 1
      value: {fileID: 21300000, guid: 9ab0c4bd10682bd419d8122945608bc5, type: 3}
    - time: 1.0833334
      value: {fileID: 21300000, guid: 3d865a86552fbcb40b1a30af6b83a842, type: 3}
    - time: 1.1666666
      value: {fileID: 21300000, guid: 74234580be752e54aa7d6f34121def7e, type: 3}
    - time: 1.25
      value: {fileID: 21300000, guid: a2e6b039f8f44ab4a8fd2649812d4885, type: 3}
    - time: 1.3333334
      value: {fileID: 21300000, guid: fb306ab3507e9d945927916ece215344, type: 3}
    - time: 1.4166666
      value: {fileID: 21300000, guid: 6b8191b2bb1d69b43a16e711773af1f0, type: 3}
    - time: 1.5
      value: {fileID: 21300000, guid: ae9dab6f246b6c14e85020f2683563df, type: 3}
    - time: 1.5833334
      value: {fileID: 21300000, guid: ae947de795c736946b2d08f3921e9b04, type: 3}
    - time: 1.6666666
      value: {fileID: 21300000, guid: 93c411c3850357042a4a2a0888c79824, type: 3}
    - time: 1.75
      value: {fileID: 21300000, guid: 738e7c9288de10946a6033c3d01b514f, type: 3}
    - time: 1.8333334
      value: {fileID: 21300000, guid: eefe44a35e428c744a6a26462368dd28, type: 3}
    - time: 1.9166666
      value: {fileID: 21300000, guid: 938776581d8280343b7988aaa7f7b5bd, type: 3}
    - time: 2
      value: {fileID: 21300000, guid: 0a6a746caff106145925f40186e49348, type: 3}
    - time: 2.0833333
      value: {fileID: 21300000, guid: cc376cf743b67744cb320b9e51120fc9, type: 3}
    - time: 2.1666667
      value: {fileID: 21300000, guid: 72155d0acd2557a4d96417e3e4bcec0f, type: 3}
    - time: 2.25
      value: {fileID: 21300000, guid: 1b94dc84f01336f48b551d62386a1572, type: 3}
    - time: 2.3333333
      value: {fileID: 21300000, guid: 673372b258dc5ba4b916c2ea07869425, type: 3}
    - time: 2.4166667
      value: {fileID: 21300000, guid: 87c847d1b82820545ad2b2c9594c59d4, type: 3}
    - time: 2.5
      value: {fileID: 21300000, guid: 86c5b8be0a31cab4ca11e7b964ee253b, type: 3}
    - time: 2.5833333
      value: {fileID: 21300000, guid: 37edc444d0c9493489ed5fb52e8a6889, type: 3}
    - time: 2.6666667
      value: {fileID: 21300000, guid: 2bc148c41586c2545a92546c6951b464, type: 3}
    - time: 2.75
      value: {fileID: 21300000, guid: b588c82bd06f70e4cb462c810cdc93ce, type: 3}
    - time: 2.8333333
      value: {fileID: 21300000, guid: 5e72c107dd1dba848a23934589a12bdc, type: 3}
    - time: 2.9166667
      value: {fileID: 21300000, guid: 72c975fea0bfd4545b40b649e97a255f, type: 3}
    - time: 3
      value: {fileID: 21300000, guid: 0f23a37cd9d96a342b26e1b53c0396cf, type: 3}
    - time: 3.0833333
      value: {fileID: 21300000, guid: 3dff7bea60016da4a8998a97c37e7ee5, type: 3}
    - time: 3.1666667
      value: {fileID: 21300000, guid: 03f089439a2a9994ab8f372b76a9bcc3, type: 3}
    - time: 3.25
      value: {fileID: 21300000, guid: 232b87509e9028149bf8994f476ff4e1, type: 3}
    - time: 3.3333333
      value: {fileID: 21300000, guid: ea97f0d0595fab84bb2c3ad818e0a129, type: 3}
    - time: 3.4166667
      value: {fileID: 21300000, guid: 6baca8d425e1bf5438d70b5fc02b46a7, type: 3}
    - time: 3.5
      value: {fileID: 21300000, guid: 27d7ff36c4169be4eb77b616dd507e14, type: 3}
    - time: 3.5833333
      value: {fileID: 21300000, guid: 424f47d370b716546b23f67c3bb26d92, type: 3}
    - time: 3.6666667
      value: {fileID: 21300000, guid: 2665d5017b4cd9649b152ba957c3315b, type: 3}
    - time: 3.75
      value: {fileID: 21300000, guid: d5c4304190aef5b4b93a24b51591ce24, type: 3}
    - time: 3.8333333
      value: {fileID: 21300000, guid: 3246225f7d68b994589a38abb98838a3, type: 3}
    - time: 3.9166667
      value: {fileID: 21300000, guid: 1c1ebdd33dbf2114f96c698889efc105, type: 3}
    - time: 4
      value: {fileID: 21300000, guid: b6ff5d94c38ad2d498b17cc01f64f1f3, type: 3}
    - time: 4.0833335
      value: {fileID: 21300000, guid: e916952833478714fade7818a8201561, type: 3}
    - time: 4.1666665
      value: {fileID: 21300000, guid: 3cecb2c9385af9f4bb765d239440d63d, type: 3}
    - time: 4.25
      value: {fileID: 21300000, guid: bda985a2ad43cf548baf071841fcea89, type: 3}
    - time: 4.3333335
      value: {fileID: 21300000, guid: a7f0ae1b9eb2971468ae20cb2b6d4706, type: 3}
    - time: 4.4166665
      value: {fileID: 21300000, guid: 828b1d6829841a445b39cd391acc09a9, type: 3}
    - time: 4.5
      value: {fileID: 21300000, guid: d3eaa5a1208ae11408e46dab0a8dd635, type: 3}
    - time: 4.5833335
      value: {fileID: 21300000, guid: 3d5d30e3aa255184582ca4df37f19e35, type: 3}
    - time: 4.6666665
      value: {fileID: 21300000, guid: 970ba1270cc82dc4ca7396ee038fc7ac, type: 3}
    - time: 4.75
      value: {fileID: 21300000, guid: e5c2e84c2ea45f54da734b8427884cc3, type: 3}
    - time: 4.8333335
      value: {fileID: 21300000, guid: 8a01af5e381a41e4482eb48eac6633da, type: 3}
    - time: 4.9166665
      value: {fileID: 21300000, guid: d5edd2f6a7df5ed4188d19515b0105a6, type: 3}
    - time: 5
      value: {fileID: 21300000, guid: 67c61a6420ef5894e948aa39566f0f21, type: 3}
    - time: 5.0833335
      value: {fileID: 21300000, guid: 8d124fd22839b4b47afe2e4052e28732, type: 3}
    - time: 5.1666665
      value: {fileID: 21300000, guid: 8702076a7a9086f43b9f0d010b97ee2b, type: 3}
    - time: 5.25
      value: {fileID: 21300000, guid: c63a767e416444645a0687d5c375b75e, type: 3}
    - time: 5.3333335
      value: {fileID: 21300000, guid: f7f9f669e0bcc17489f057cd1d1521f0, type: 3}
    - time: 5.4166665
      value: {fileID: 21300000, guid: b182b7042bb02724581793d26b719293, type: 3}
    - time: 5.5
      value: {fileID: 21300000, guid: fe4a682107db1564c9989c55d397a33e, type: 3}
    - time: 5.5833335
      value: {fileID: 21300000, guid: 0b2ea28a346580b4f8bc5f37748fa518, type: 3}
    - time: 5.6666665
      value: {fileID: 21300000, guid: ec4c20ccd57277a47a78033303b7c601, type: 3}
    - time: 5.75
      value: {fileID: 21300000, guid: 192411e15a457ec4285a530fd9c4b329, type: 3}
    - time: 5.8333335
      value: {fileID: 21300000, guid: 4f33a8470cd2aa04bb4970b9649b86bc, type: 3}
    - time: 5.9166665
      value: {fileID: 21300000, guid: 4b06280b2932c6b41a7039ae19744614, type: 3}
    - time: 6
      value: {fileID: 21300000, guid: cf4416639364c0740acde9f11f805909, type: 3}
    - time: 6.0833335
      value: {fileID: 21300000, guid: 76d048067e640af4bb0309e70614f22c, type: 3}
    - time: 6.1666665
      value: {fileID: 21300000, guid: 4ace3e3d033d6e143b805c2435f8ccb3, type: 3}
    - time: 6.25
      value: {fileID: 21300000, guid: f745aa941c6da1845984691448957e87, type: 3}
    - time: 6.3333335
      value: {fileID: 21300000, guid: 9107e4446eeed0f4a9c6ba3d361b7fab, type: 3}
    - time: 6.4166665
      value: {fileID: 21300000, guid: d79d4d50c59723446b02a566ac5c516b, type: 3}
    - time: 6.5
      value: {fileID: 21300000, guid: 16ec60be9176189449b6d26115f93e09, type: 3}
    - time: 6.5833335
      value: {fileID: 21300000, guid: b49047bda32d89c4299772ac22926867, type: 3}
    - time: 6.6666665
      value: {fileID: 21300000, guid: 9a61103a6d8980a4785f9ff4047c9a2c, type: 3}
    - time: 6.75
      value: {fileID: 21300000, guid: 94bb3314913f0c040ab3f6ac1664c288, type: 3}
    - time: 6.8333335
      value: {fileID: 21300000, guid: 81d598ae3d610a2478d19f92179d3ae0, type: 3}
    - time: 6.9166665
      value: {fileID: 21300000, guid: e0406bb10d5347d44b108c01740e6707, type: 3}
    - time: 7
      value: {fileID: 21300000, guid: 59e9edde6d7bd14469fc3feb9a5a865a, type: 3}
    - time: 7.0833335
      value: {fileID: 21300000, guid: 7fefcb1b1456fd149a906278259e203b, type: 3}
    - time: 7.1666665
      value: {fileID: 21300000, guid: 0b0f758c07790d74dba90f6c988c1c0a, type: 3}
    - time: 7.25
      value: {fileID: 21300000, guid: 7ddd470a06dd76f46b39590780a84010, type: 3}
    - time: 7.3333335
      value: {fileID: 21300000, guid: 4fa075d00828cbf428b11179283cd8c6, type: 3}
    - time: 7.4166665
      value: {fileID: 21300000, guid: 22b43a7711dae944ebcbf86909d23f90, type: 3}
    - time: 7.5
      value: {fileID: 21300000, guid: 7bb88893f94d59548ae5fc28a28ddb67, type: 3}
    - time: 7.5833335
      value: {fileID: 21300000, guid: b2fa5059bdb50e145b209402f9cdf885, type: 3}
    - time: 7.6666665
      value: {fileID: 21300000, guid: 9af5e877650ffca43814a15d2919a1eb, type: 3}
    - time: 7.75
      value: {fileID: 21300000, guid: a3c3d4947435e884ab91edb3ad9249fc, type: 3}
    - time: 7.8333335
      value: {fileID: 21300000, guid: 165ab01c201bb904a90dcc78c943deef, type: 3}
    - time: 7.9166665
      value: {fileID: 21300000, guid: 0ba00f1b72598b24290dff01ee7a07aa, type: 3}
    - time: 8
      value: {fileID: 21300000, guid: ebbc5a69f6fc66d4f815c9fbba5bd02b, type: 3}
    - time: 8.083333
      value: {fileID: 21300000, guid: 5947877c59008794c87476f7facc5cdb, type: 3}
    - time: 8.166667
      value: {fileID: 21300000, guid: 61cfb06aa123d3b4496c61ac17ac0890, type: 3}
    - time: 8.25
      value: {fileID: 21300000, guid: 69396376736c2364bbc6a691f01addc7, type: 3}
    - time: 8.333333
      value: {fileID: 21300000, guid: 982772de239da9a4c851fc514bbd22a0, type: 3}
    - time: 8.416667
      value: {fileID: 21300000, guid: 59cb0ae44c02e8b4eae40fdb4707fc3f, type: 3}
    - time: 8.5
      value: {fileID: 21300000, guid: b3a7126375ae0564b8e205aa011633c8, type: 3}
    - time: 8.583333
      value: {fileID: 21300000, guid: 2cdb456bec423b84dbc865ca873cc8c3, type: 3}
    - time: 8.666667
      value: {fileID: 21300000, guid: 0f8a664625aebc04289791dac11106e8, type: 3}
    - time: 8.75
      value: {fileID: 21300000, guid: 104897a6c819e2b4082005341198503b, type: 3}
    - time: 8.833333
      value: {fileID: 21300000, guid: 7f0872a60c7a2a84eb89e773672613c7, type: 3}
    - time: 8.916667
      value: {fileID: 21300000, guid: 395912f0c08da0d44877730089d9fc86, type: 3}
    - time: 9
      value: {fileID: 21300000, guid: cda803a145e396344bad1f56d85a0319, type: 3}
    - time: 9.083333
      value: {fileID: 21300000, guid: 059d1bed5ce265a4982c10fa4d215a4d, type: 3}
    - time: 9.166667
      value: {fileID: 21300000, guid: b78ea688798ebd24593d76a3c64bf547, type: 3}
    - time: 9.25
      value: {fileID: 21300000, guid: b2a438f7ed968a548b517eed66905f7e, type: 3}
    - time: 9.333333
      value: {fileID: 21300000, guid: ac470e90bbdedb54b84a3c9a07cedde3, type: 3}
    - time: 9.416667
      value: {fileID: 21300000, guid: 73022456d3dd9e34d8ffc69ac27a8baa, type: 3}
    - time: 9.5
      value: {fileID: 21300000, guid: 6ceeef0e985acb54c8d8bc31a58e7a61, type: 3}
    - time: 9.583333
      value: {fileID: 21300000, guid: 5db460c50faea694abc80922e9540ac6, type: 3}
    - time: 9.666667
      value: {fileID: 21300000, guid: 6ed510e826ef9644187e3e09a3a76fc1, type: 3}
    - time: 9.75
      value: {fileID: 21300000, guid: 4168176b0cf333b4a824abb24524200a, type: 3}
    - time: 9.833333
      value: {fileID: 21300000, guid: 43d180b8da131864bade9e67e555b00b, type: 3}
    - time: 9.916667
      value: {fileID: 21300000, guid: 8869d91e8d43400489f4f61420fcf9c0, type: 3}
    attribute: m_Sprite
    path: 
    classID: 212
    script: {fileID: 0}
  m_SampleRate: 12
  m_WrapMode: 0
  m_Bounds:
    m_Center: {x: 0, y: 0, z: 0}
    m_Extent: {x: 0, y: 0, z: 0}
  m_ClipBindingConstant:
    genericBindings:
    - serializedVersion: 2
      path: 0
      attribute: 0
      script: {fileID: 0}
      typeID: 212
      customType: 23
      isPPtrCurve: 1
    pptrCurveMapping:
    - {fileID: 21300000, guid: 0211186056430794d92283c51a285552, type: 3}
    - {fileID: 21300000, guid: 8455c36c9cd013a43a18038d28db6753, type: 3}
    - {fileID: 21300000, guid: d51b659b9cfd3104881ec14c3ea31347, type: 3}
    - {fileID: 21300000, guid: c3d4aaf6d61877f4e9e9ab808e76c015, type: 3}
    - {fileID: 21300000, guid: 5394604c359106545b2afbc11244f67b, type: 3}
    - {fileID: 21300000, guid: 751e5e033cdb2434e9eb2979eda50eae, type: 3}
    - {fileID: 21300000, guid: 55deef95de3f751448bc208a281a2c32, type: 3}
    - {fileID: 21300000, guid: cdcee23f95cf9bb48963cca514dc33b4, type: 3}
    - {fileID: 21300000, guid: 6c2b01b72c7e7eb439c85654e842ead8, type: 3}
    - {fileID: 21300000, guid: 996c80bbe61c1d14e83995528fedc201, type: 3}
    - {fileID: 21300000, guid: 1c416d55b101e104e97d9203111681b7, type: 3}
    - {fileID: 21300000, guid: 253d4eeb75188a648b160f3c0f8a3271, type: 3}
    - {fileID: 21300000, guid: 9ab0c4bd10682bd419d8122945608bc5, type: 3}
    - {fileID: 21300000, guid: 3d865a86552fbcb40b1a30af6b83a842, type: 3}
    - {fileID: 21300000, guid: 74234580be752e54aa7d6f34121def7e, type: 3}
    - {fileID: 21300000, guid: a2e6b039f8f44ab4a8fd2649812d4885, type: 3}
    - {fileID: 21300000, guid: fb306ab3507e9d945927916ece215344, type: 3}
    - {fileID: 21300000, guid: 6b8191b2bb1d69b43a16e711773af1f0, type: 3}
    - {fileID: 21300000, guid: ae9dab6f246b6c14e85020f2683563df, type: 3}
    - {fileID: 21300000, guid: ae947de795c736946b2d08f3921e9b04, type: 3}
    - {fileID: 21300000, guid: 93c411c3850357042a4a2a0888c79824, type: 3}
    - {fileID: 21300000, guid: 738e7c9288de10946a6033c3d01b514f, type: 3}
    - {fileID: 21300000, guid: eefe44a35e428c744a6a26462368dd28, type: 3}
    - {fileID: 21300000, guid: 938776581d8280343b7988aaa7f7b5bd, type: 3}
    - {fileID: 21300000, guid: 0a6a746caff106145925f40186e49348, type: 3}
    - {fileID: 21300000, guid: cc376cf743b67744cb320b9e51120fc9, type: 3}
    - {fileID: 21300000, guid: 72155d0acd2557a4d96417e3e4bcec0f, type: 3}
    - {fileID: 21300000, guid: 1b94dc84f01336f48b551d62386a1572, type: 3}
    - {fileID: 21300000, guid: 673372b258dc5ba4b916c2ea07869425, type: 3}
    - {fileID: 21300000, guid: 87c847d1b82820545ad2b2c9594c59d4, type: 3}
    - {fileID: 21300000, guid: 86c5b8be0a31cab4ca11e7b964ee253b, type: 3}
    - {fileID: 21300000, guid: 37edc444d0c9493489ed5fb52e8a6889, type: 3}
    - {fileID: 21300000, guid: 2bc148c41586c2545a92546c6951b464, type: 3}
    - {fileID: 21300000, guid: b588c82bd06f70e4cb462c810cdc93ce, type: 3}
    - {fileID: 21300000, guid: 5e72c107dd1dba848a23934589a12bdc, type: 3}
    - {fileID: 21300000, guid: 72c975fea0bfd4545b40b649e97a255f, type: 3}
    - {fileID: 21300000, guid: 0f23a37cd9d96a342b26e1b53c0396cf, type: 3}
    - {fileID: 21300000, guid: 3dff7bea60016da4a8998a97c37e7ee5, type: 3}
    - {fileID: 21300000, guid: 03f089439a2a9994ab8f372b76a9bcc3, type: 3}
    - {fileID: 21300000, guid: 232b87509e9028149bf8994f476ff4e1, type: 3}
    - {fileID: 21300000, guid: ea97f0d0595fab84bb2c3ad818e0a129, type: 3}
    - {fileID: 21300000, guid: 6baca8d425e1bf5438d70b5fc02b46a7, type: 3}
    - {fileID: 21300000, guid: 27d7ff36c4169be4eb77b616dd507e14, type: 3}
    - {fileID: 21300000, guid: 424f47d370b716546b23f67c3bb26d92, type: 3}
    - {fileID: 21300000, guid: 2665d5017b4cd9649b152ba957c3315b, type: 3}
    - {fileID: 21300000, guid: d5c4304190aef5b4b93a24b51591ce24, type: 3}
    - {fileID: 21300000, guid: 3246225f7d68b994589a38abb98838a3, type: 3}
    - {fileID: 21300000, guid: 1c1ebdd33dbf2114f96c698889efc105, type: 3}
    - {fileID: 21300000, guid: b6ff5d94c38ad2d498b17cc01f64f1f3, type: 3}
    - {fileID: 21300000, guid: e916952833478714fade7818a8201561, type: 3}
    - {fileID: 21300000, guid: 3cecb2c9385af9f4bb765d239440d63d, type: 3}
    - {fileID: 21300000, guid: bda985a2ad43cf548baf071841fcea89, type: 3}
    - {fileID: 21300000, guid: a7f0ae1b9eb2971468ae20cb2b6d4706, type: 3}
    - {fileID: 21300000, guid: 828b1d6829841a445b39cd391acc09a9, type: 3}
    - {fileID: 21300000, guid: d3eaa5a1208ae11408e46dab0a8dd635, type: 3}
    - {fileID: 21300000, guid: 3d5d30e3aa255184582ca4df37f19e35, type: 3}
    - {fileID: 21300000, guid: 970ba1270cc82dc4ca7396ee038fc7ac, type: 3}
    - {fileID: 21300000, guid: e5c2e84c2ea45f54da734b8427884cc3, type: 3}
    - {fileID: 21300000, guid: 8a01af5e381a41e4482eb48eac6633da, type: 3}
    - {fileID: 21300000, guid: d5edd2f6a7df5ed4188d19515b0105a6, type: 3}
    - {fileID: 21300000, guid: 67c61a6420ef5894e948aa39566f0f21, type: 3}
    - {fileID: 21300000, guid: 8d124fd22839b4b47afe2e4052e28732, type: 3}
    - {fileID: 21300000, guid: 8702076a7a9086f43b9f0d010b97ee2b, type: 3}
    - {fileID: 21300000, guid: c63a767e416444645a0687d5c375b75e, type: 3}
    - {fileID: 21300000, guid: f7f9f669e0bcc17489f057cd1d1521f0, type: 3}
    - {fileID: 21300000, guid: b182b7042bb02724581793d26b719293, type: 3}
    - {fileID: 21300000, guid: fe4a682107db1564c9989c55d397a33e, type: 3}
    - {fileID: 21300000, guid: 0b2ea28a346580b4f8bc5f37748fa518, type: 3}
    - {fileID: 21300000, guid: ec4c20ccd57277a47a78033303b7c601, type: 3}
    - {fileID: 21300000, guid: 192411e15a457ec4285a530fd9c4b329, type: 3}
    - {fileID: 21300000, guid: 4f33a8470cd2aa04bb4970b9649b86bc, type: 3}
    - {fileID: 21300000, guid: 4b06280b2932c6b41a7039ae19744614, type: 3}
    - {fileID: 21300000, guid: cf4416639364c0740acde9f11f805909, type: 3}
    - {fileID: 21300000, guid: 76d048067e640af4bb0309e70614f22c, type: 3}
    - {fileID: 21300000, guid: 4ace3e3d033d6e143b805c2435f8ccb3, type: 3}
    - {fileID: 21300000, guid: f745aa941c6da1845984691448957e87, type: 3}
    - {fileID: 21300000, guid: 9107e4446eeed0f4a9c6ba3d361b7fab, type: 3}
    - {fileID: 21300000, guid: d79d4d50c59723446b02a566ac5c516b, type: 3}
    - {fileID: 21300000, guid: 16ec60be9176189449b6d26115f93e09, type: 3}
    - {fileID: 21300000, guid: b49047bda32d89c4299772ac22926867, type: 3}
    - {fileID: 21300000, guid: 9a61103a6d8980a4785f9ff4047c9a2c, type: 3}
    - {fileID: 21300000, guid: 94bb3314913f0c040ab3f6ac1664c288, type: 3}
    - {fileID: 21300000, guid: 81d598ae3d610a2478d19f92179d3ae0, type: 3}
    - {fileID: 21300000, guid: e0406bb10d5347d44b108c01740e6707, type: 3}
    - {fileID: 21300000, guid: 59e9edde6d7bd14469fc3feb9a5a865a, type: 3}
    - {fileID: 21300000, guid: 7fefcb1b1456fd149a906278259e203b, type: 3}
    - {fileID: 21300000, guid: 0b0f758c07790d74dba90f6c988c1c0a, type: 3}
    - {fileID: 21300000, guid: 7ddd470a06dd76f46b39590780a84010, type: 3}
    - {fileID: 21300000, guid: 4fa075d00828cbf428b11179283cd8c6, type: 3}
    - {fileID: 21300000, guid: 22b43a7711dae944ebcbf86909d23f90, type: 3}
    - {fileID: 21300000, guid: 7bb88893f94d59548ae5fc28a28ddb67, type: 3}
    - {fileID: 21300000, guid: b2fa5059bdb50e145b209402f9cdf885, type: 3}
    - {fileID: 21300000, guid: 9af5e877650ffca43814a15d2919a1eb, type: 3}
    - {fileID: 21300000, guid: a3c3d4947435e884ab91edb3ad9249fc, type: 3}
    - {fileID: 21300000, guid: 165ab01c201bb904a90dcc78c943deef, type: 3}
    - {fileID: 21300000, guid: 0ba00f1b72598b24290dff01ee7a07aa, type: 3}
    - {fileID: 21300000, guid: ebbc5a69f6fc66d4f815c9fbba5bd02b, type: 3}
    - {fileID: 21300000, guid: 5947877c59008794c87476f7facc5cdb, type: 3}
    - {fileID: 21300000, guid: 61cfb06aa123d3b4496c61ac17ac0890, type: 3}
    - {fileID: 21300000, guid: 69396376736c2364bbc6a691f01addc7, type: 3}
    - {fileID: 21300000, guid: 982772de239da9a4c851fc514bbd22a0, type: 3}
    - {fileID: 21300000, guid: 59cb0ae44c02e8b4eae40fdb4707fc3f, type: 3}
    - {fileID: 21300000, guid: b3a7126375ae0564b8e205aa011633c8, type: 3}
    - {fileID: 21300000, guid: 2cdb456bec423b84dbc865ca873cc8c3, type: 3}
    - {fileID: 21300000, guid: 0f8a664625aebc04289791dac11106e8, type: 3}
    - {fileID: 21300000, guid: 104897a6c819e2b4082005341198503b, type: 3}
    - {fileID: 21300000, guid: 7f0872a60c7a2a84eb89e773672613c7, type: 3}
    - {fileID: 21300000, guid: 395912f0c08da0d44877730089d9fc86, type: 3}
    - {fileID: 21300000, guid: cda803a145e396344bad1f56d85a0319, type: 3}
    - {fileID: 21300000, guid: 059d1bed5ce265a4982c10fa4d215a4d, type: 3}
    - {fileID: 21300000, guid: b78ea688798ebd24593d76a3c64bf547, type: 3}
    - {fileID: 21300000, guid: b2a438f7ed968a548b517eed66905f7e, type: 3}
    - {fileID: 21300000, guid: ac470e90bbdedb54b84a3c9a07cedde3, type: 3}
    - {fileID: 21300000, guid: 73022456d3dd9e34d8ffc69ac27a8baa, type: 3}
    - {fileID: 21300000, guid: 6ceeef0e985acb54c8d8bc31a58e7a61, type: 3}
    - {fileID: 21300000, guid: 5db460c50faea694abc80922e9540ac6, type: 3}
    - {fileID: 21300000, guid: 6ed510e826ef9644187e3e09a3a76fc1, type: 3}
    - {fileID: 21300000, guid: 4168176b0cf333b4a824abb24524200a, type: 3}
    - {fileID: 21300000, guid: 43d180b8da131864bade9e67e555b00b, type: 3}
    - {fileID: 21300000, guid: 8869d91e8d43400489f4f61420fcf9c0, type: 3}
  m_AnimationClipSettings:
    serializedVersion: 2
    m_AdditiveReferencePoseClip: {fileID: 0}
    m_AdditiveReferencePoseTime: 0
    m_StartTime: 0
    m_StopTime: 10
    m_OrientationOffsetY: 0
    m_Level: 0
    m_CycleOffset: 0
    m_HasAdditiveReferencePose: 0
    m_LoopTime: 1
    m_LoopBlend: 0
    m_LoopBlendOrientation: 0
    m_LoopBlendPositionY: 0
    m_LoopBlendPositionXZ: 0
    m_KeepOriginalOrientation: 0
    m_KeepOriginalPositionY: 1
    m_KeepOriginalPositionXZ: 0
    m_HeightFromFeet: 0
    m_Mirror: 0
  m_EditorCurves: []
  m_EulerEditorCurves: []
  m_HasGenericRootTransform: 0
  m_HasMotionFloatCurves: 0
  m_Events: []
