%YAML 1.1
%TAG !u! tag:unity3d.com,2011:
--- !u!74 &7400000
AnimationClip:
  m_ObjectHideFlags: 0
  m_CorrespondingSourceObject: {fileID: 0}
  m_PrefabInstance: {fileID: 0}
  m_PrefabAsset: {fileID: 0}
  m_Name: SGQF_Walk
  serializedVersion: 6
  m_Legacy: 0
  m_Compressed: 0
  m_UseHighQualityCurve: 1
  m_RotationCurves: []
  m_CompressedRotationCurves: []
  m_EulerCurves: []
  m_PositionCurves: []
  m_ScaleCurves: []
  m_FloatCurves: []
  m_PPtrCurves:
  - curve:
    - time: 0
      value: {fileID: 21300000, guid: a3685a4824fd3e8468a6b5e821ff0f75, type: 3}
    - time: 0.083333336
      value: {fileID: 21300000, guid: f9301a0d5c6edf048bc5a5e303c2a934, type: 3}
    - time: 0.16666667
      value: {fileID: 21300000, guid: 39735246d71c06d40b539bc3240c0833, type: 3}
    - time: 0.25
      value: {fileID: 21300000, guid: 38cd845ae0c95e148b910b561ba12264, type: 3}
    - time: 0.33333334
      value: {fileID: 21300000, guid: 19850ac6d6ac27a4982317a2008a3b89, type: 3}
    - time: 0.41666666
      value: {fileID: 21300000, guid: 653bc39b32fa0be46b017b3596c92cbd, type: 3}
    - time: 0.5
      value: {fileID: 21300000, guid: 41cd146ac8d64914ea98248211f3a57c, type: 3}
    - time: 0.5833333
      value: {fileID: 21300000, guid: b1c79d1e70bf8cb4d95fb8d51835d1db, type: 3}
    - time: 0.6666667
      value: {fileID: 21300000, guid: ccbb29c7196b7134aafa4c6a4b5d9cb7, type: 3}
    - time: 0.75
      value: {fileID: 21300000, guid: 9f93c7a73e452bf49979534765fb85e6, type: 3}
    - time: 0.8333333
      value: {fileID: 21300000, guid: 953b480bc1e620e489da5bd3c55f1152, type: 3}
    - time: 0.9166667
      value: {fileID: 21300000, guid: f63743ae352e39d4d8081968d928003d, type: 3}
    - time: 1
      value: {fileID: 21300000, guid: 55da3c54bbadade4ca6b3332603a9c53, type: 3}
    - time: 1.0833334
      value: {fileID: 21300000, guid: 9b229df3c5e04ca4ab880d060bca3ecb, type: 3}
    - time: 1.1666666
      value: {fileID: 21300000, guid: 964f68bbdaf436c458ba115aab84eaf7, type: 3}
    - time: 1.25
      value: {fileID: 21300000, guid: 28035aa2b381c2948bb1ea07bfd527ab, type: 3}
    - time: 1.3333334
      value: {fileID: 21300000, guid: 4f0d11ec7f645af42a1a58928193c8f3, type: 3}
    - time: 1.4166666
      value: {fileID: 21300000, guid: 0f789aff4c844fd418586031f4549f88, type: 3}
    - time: 1.5
      value: {fileID: 21300000, guid: 8b7b07ae8831a20459013bee902d0c62, type: 3}
    - time: 1.5833334
      value: {fileID: 21300000, guid: cc4b8f6a14516be459a3d2a4934bddc1, type: 3}
    - time: 1.6666666
      value: {fileID: 21300000, guid: 26e79a0055aabd941849cedfd7dd9a83, type: 3}
    - time: 1.75
      value: {fileID: 21300000, guid: 79adb6defda626842b2cd6f75aafbfd3, type: 3}
    - time: 1.8333334
      value: {fileID: 21300000, guid: 8c2660ea60f9a504fa7f364d674ca562, type: 3}
    - time: 1.9166666
      value: {fileID: 21300000, guid: 12d9e2d8e406cc948aab81cbabc32dc8, type: 3}
    - time: 2
      value: {fileID: 21300000, guid: f47713c2b1efd554d832dd8f143f5bca, type: 3}
    - time: 2.0833333
      value: {fileID: 21300000, guid: 0b8d0f4f665213b45aac7a1f97d6de98, type: 3}
    - time: 2.1666667
      value: {fileID: 21300000, guid: ad8a6e3d1dca4164ab5ac2a4e719f18d, type: 3}
    - time: 2.25
      value: {fileID: 21300000, guid: d89c32bf8180b104184ef98ecbc40884, type: 3}
    - time: 2.3333333
      value: {fileID: 21300000, guid: c0cd98afdb24ee24c81077f6048d3d68, type: 3}
    - time: 2.4166667
      value: {fileID: 21300000, guid: 90f9b89ec50ec7046a5a4009aef752db, type: 3}
    - time: 2.5
      value: {fileID: 21300000, guid: 1ce0dc54f89105f45a717872ff1629ad, type: 3}
    - time: 2.5833333
      value: {fileID: 21300000, guid: b6d9dcda9742d5a448d4479ff81ed51e, type: 3}
    attribute: m_Sprite
    path: 
    classID: 212
    script: {fileID: 0}
  m_SampleRate: 12
  m_WrapMode: 0
  m_Bounds:
    m_Center: {x: 0, y: 0, z: 0}
    m_Extent: {x: 0, y: 0, z: 0}
  m_ClipBindingConstant:
    genericBindings:
    - serializedVersion: 2
      path: 0
      attribute: 0
      script: {fileID: 0}
      typeID: 212
      customType: 23
      isPPtrCurve: 1
    pptrCurveMapping:
    - {fileID: 21300000, guid: a3685a4824fd3e8468a6b5e821ff0f75, type: 3}
    - {fileID: 21300000, guid: f9301a0d5c6edf048bc5a5e303c2a934, type: 3}
    - {fileID: 21300000, guid: 39735246d71c06d40b539bc3240c0833, type: 3}
    - {fileID: 21300000, guid: 38cd845ae0c95e148b910b561ba12264, type: 3}
    - {fileID: 21300000, guid: 19850ac6d6ac27a4982317a2008a3b89, type: 3}
    - {fileID: 21300000, guid: 653bc39b32fa0be46b017b3596c92cbd, type: 3}
    - {fileID: 21300000, guid: 41cd146ac8d64914ea98248211f3a57c, type: 3}
    - {fileID: 21300000, guid: b1c79d1e70bf8cb4d95fb8d51835d1db, type: 3}
    - {fileID: 21300000, guid: ccbb29c7196b7134aafa4c6a4b5d9cb7, type: 3}
    - {fileID: 21300000, guid: 9f93c7a73e452bf49979534765fb85e6, type: 3}
    - {fileID: 21300000, guid: 953b480bc1e620e489da5bd3c55f1152, type: 3}
    - {fileID: 21300000, guid: f63743ae352e39d4d8081968d928003d, type: 3}
    - {fileID: 21300000, guid: 55da3c54bbadade4ca6b3332603a9c53, type: 3}
    - {fileID: 21300000, guid: 9b229df3c5e04ca4ab880d060bca3ecb, type: 3}
    - {fileID: 21300000, guid: 964f68bbdaf436c458ba115aab84eaf7, type: 3}
    - {fileID: 21300000, guid: 28035aa2b381c2948bb1ea07bfd527ab, type: 3}
    - {fileID: 21300000, guid: 4f0d11ec7f645af42a1a58928193c8f3, type: 3}
    - {fileID: 21300000, guid: 0f789aff4c844fd418586031f4549f88, type: 3}
    - {fileID: 21300000, guid: 8b7b07ae8831a20459013bee902d0c62, type: 3}
    - {fileID: 21300000, guid: cc4b8f6a14516be459a3d2a4934bddc1, type: 3}
    - {fileID: 21300000, guid: 26e79a0055aabd941849cedfd7dd9a83, type: 3}
    - {fileID: 21300000, guid: 79adb6defda626842b2cd6f75aafbfd3, type: 3}
    - {fileID: 21300000, guid: 8c2660ea60f9a504fa7f364d674ca562, type: 3}
    - {fileID: 21300000, guid: 12d9e2d8e406cc948aab81cbabc32dc8, type: 3}
    - {fileID: 21300000, guid: f47713c2b1efd554d832dd8f143f5bca, type: 3}
    - {fileID: 21300000, guid: 0b8d0f4f665213b45aac7a1f97d6de98, type: 3}
    - {fileID: 21300000, guid: ad8a6e3d1dca4164ab5ac2a4e719f18d, type: 3}
    - {fileID: 21300000, guid: d89c32bf8180b104184ef98ecbc40884, type: 3}
    - {fileID: 21300000, guid: c0cd98afdb24ee24c81077f6048d3d68, type: 3}
    - {fileID: 21300000, guid: 90f9b89ec50ec7046a5a4009aef752db, type: 3}
    - {fileID: 21300000, guid: 1ce0dc54f89105f45a717872ff1629ad, type: 3}
    - {fileID: 21300000, guid: b6d9dcda9742d5a448d4479ff81ed51e, type: 3}
  m_AnimationClipSettings:
    serializedVersion: 2
    m_AdditiveReferencePoseClip: {fileID: 0}
    m_AdditiveReferencePoseTime: 0
    m_StartTime: 0
    m_StopTime: 2.6666665
    m_OrientationOffsetY: 0
    m_Level: 0
    m_CycleOffset: 0
    m_HasAdditiveReferencePose: 0
    m_LoopTime: 1
    m_LoopBlend: 0
    m_LoopBlendOrientation: 0
    m_LoopBlendPositionY: 0
    m_LoopBlendPositionXZ: 0
    m_KeepOriginalOrientation: 0
    m_KeepOriginalPositionY: 1
    m_KeepOriginalPositionXZ: 0
    m_HeightFromFeet: 0
    m_Mirror: 0
  m_EditorCurves: []
  m_EulerEditorCurves: []
  m_HasGenericRootTransform: 0
  m_HasMotionFloatCurves: 0
  m_Events: []
