%YAML 1.1
%TAG !u! tag:unity3d.com,2011:
--- !u!74 &7400000
AnimationClip:
  m_ObjectHideFlags: 0
  m_CorrespondingSourceObject: {fileID: 0}
  m_PrefabInstance: {fileID: 0}
  m_PrefabAsset: {fileID: 0}
  m_Name: BGQB_Walk
  serializedVersion: 6
  m_Legacy: 0
  m_Compressed: 0
  m_UseHighQualityCurve: 1
  m_RotationCurves: []
  m_CompressedRotationCurves: []
  m_EulerCurves: []
  m_PositionCurves: []
  m_ScaleCurves: []
  m_FloatCurves: []
  m_PPtrCurves:
  - curve:
    - time: 0
      value: {fileID: 21300000, guid: c25cd1c2cab2d0a499c6107c76cd6b2f, type: 3}
    - time: 0.083333336
      value: {fileID: 21300000, guid: 9009e3f9edd2eb5408313cdd7cde7ee7, type: 3}
    - time: 0.16666667
      value: {fileID: 21300000, guid: 11fda4b6cef59124b94ef58db9651767, type: 3}
    - time: 0.25
      value: {fileID: 21300000, guid: 098d073e19204414f97f7231269b44cc, type: 3}
    - time: 0.33333334
      value: {fileID: 21300000, guid: 3f524c4ef6e006345b86fcbaf242efcb, type: 3}
    - time: 0.41666666
      value: {fileID: 21300000, guid: 1312435b592f3904c95d343bfc42b20b, type: 3}
    - time: 0.5
      value: {fileID: 21300000, guid: 71612b852fe67754595c9323fb728d1a, type: 3}
    - time: 0.5833333
      value: {fileID: 21300000, guid: c705a573c42374543a02b03b1170b741, type: 3}
    - time: 0.6666667
      value: {fileID: 21300000, guid: b6ec57b9eea09b8419cc3c9496dc3146, type: 3}
    - time: 0.75
      value: {fileID: 21300000, guid: 36c41a873d919124bb68298d5ea570fa, type: 3}
    - time: 0.8333333
      value: {fileID: 21300000, guid: 7b0a3d51a239b9841a9c3e0488b63847, type: 3}
    - time: 0.9166667
      value: {fileID: 21300000, guid: 1bf66ce2fde8723449f0bfe9876307b9, type: 3}
    - time: 1
      value: {fileID: 21300000, guid: 676cf8475a20cc841be521d354fb7113, type: 3}
    - time: 1.0833334
      value: {fileID: 21300000, guid: 5ede1164b9743ac4490c5d0f5366742a, type: 3}
    - time: 1.1666666
      value: {fileID: 21300000, guid: d5a7f0e0c5d5c7846bfd633f8dc4c3fd, type: 3}
    - time: 1.25
      value: {fileID: 21300000, guid: 4b00ef65ff953b548a652b3ca7480c56, type: 3}
    - time: 1.3333334
      value: {fileID: 21300000, guid: 2f1e22ed216c46345a8ebad8cffc7b2e, type: 3}
    - time: 1.4166666
      value: {fileID: 21300000, guid: fcfbf209d79dafd49bc1c0bae293a3bc, type: 3}
    - time: 1.5
      value: {fileID: 21300000, guid: b706dc0c11d9c004dad6fc7b743f5460, type: 3}
    - time: 1.5833334
      value: {fileID: 21300000, guid: 952b86cbb6f0e54478881a5333a6d605, type: 3}
    - time: 1.6666666
      value: {fileID: 21300000, guid: f81ed5a8ecbc69440a876b588094bb51, type: 3}
    - time: 1.75
      value: {fileID: 21300000, guid: e4ba2939d7ab7734fa73a7902afb47fa, type: 3}
    - time: 1.8333334
      value: {fileID: 21300000, guid: adaf4430697cc314888a2c655b668358, type: 3}
    - time: 1.9166666
      value: {fileID: 21300000, guid: 02f8cf48825553e40b9cadd5a859ad41, type: 3}
    - time: 2
      value: {fileID: 21300000, guid: d0f7f8b84989c974c908f535ea16f904, type: 3}
    - time: 2.0833333
      value: {fileID: 21300000, guid: 0881c67920d19b846aff8b4d97f91939, type: 3}
    - time: 2.1666667
      value: {fileID: 21300000, guid: 09b91a0c608f65b44b215ea9708eb1ee, type: 3}
    - time: 2.25
      value: {fileID: 21300000, guid: 4da8c70ab56bd0040b8a57bea99dfd4b, type: 3}
    - time: 2.3333333
      value: {fileID: 21300000, guid: 6f81dd664952c1a44b32de23ba9621c2, type: 3}
    - time: 2.4166667
      value: {fileID: 21300000, guid: bc5044f446fe94a4b8231e962e12fb7e, type: 3}
    - time: 2.5
      value: {fileID: 21300000, guid: 38fc282bc0f9e914ab99ac59d888fc26, type: 3}
    - time: 2.5833333
      value: {fileID: 21300000, guid: 8904bf5ae1ff800449cb4f278e252ec7, type: 3}
    attribute: m_Sprite
    path: 
    classID: 212
    script: {fileID: 0}
  m_SampleRate: 12
  m_WrapMode: 0
  m_Bounds:
    m_Center: {x: 0, y: 0, z: 0}
    m_Extent: {x: 0, y: 0, z: 0}
  m_ClipBindingConstant:
    genericBindings:
    - serializedVersion: 2
      path: 0
      attribute: 0
      script: {fileID: 0}
      typeID: 212
      customType: 23
      isPPtrCurve: 1
    pptrCurveMapping:
    - {fileID: 21300000, guid: c25cd1c2cab2d0a499c6107c76cd6b2f, type: 3}
    - {fileID: 21300000, guid: 9009e3f9edd2eb5408313cdd7cde7ee7, type: 3}
    - {fileID: 21300000, guid: 11fda4b6cef59124b94ef58db9651767, type: 3}
    - {fileID: 21300000, guid: 098d073e19204414f97f7231269b44cc, type: 3}
    - {fileID: 21300000, guid: 3f524c4ef6e006345b86fcbaf242efcb, type: 3}
    - {fileID: 21300000, guid: 1312435b592f3904c95d343bfc42b20b, type: 3}
    - {fileID: 21300000, guid: 71612b852fe67754595c9323fb728d1a, type: 3}
    - {fileID: 21300000, guid: c705a573c42374543a02b03b1170b741, type: 3}
    - {fileID: 21300000, guid: b6ec57b9eea09b8419cc3c9496dc3146, type: 3}
    - {fileID: 21300000, guid: 36c41a873d919124bb68298d5ea570fa, type: 3}
    - {fileID: 21300000, guid: 7b0a3d51a239b9841a9c3e0488b63847, type: 3}
    - {fileID: 21300000, guid: 1bf66ce2fde8723449f0bfe9876307b9, type: 3}
    - {fileID: 21300000, guid: 676cf8475a20cc841be521d354fb7113, type: 3}
    - {fileID: 21300000, guid: 5ede1164b9743ac4490c5d0f5366742a, type: 3}
    - {fileID: 21300000, guid: d5a7f0e0c5d5c7846bfd633f8dc4c3fd, type: 3}
    - {fileID: 21300000, guid: 4b00ef65ff953b548a652b3ca7480c56, type: 3}
    - {fileID: 21300000, guid: 2f1e22ed216c46345a8ebad8cffc7b2e, type: 3}
    - {fileID: 21300000, guid: fcfbf209d79dafd49bc1c0bae293a3bc, type: 3}
    - {fileID: 21300000, guid: b706dc0c11d9c004dad6fc7b743f5460, type: 3}
    - {fileID: 21300000, guid: 952b86cbb6f0e54478881a5333a6d605, type: 3}
    - {fileID: 21300000, guid: f81ed5a8ecbc69440a876b588094bb51, type: 3}
    - {fileID: 21300000, guid: e4ba2939d7ab7734fa73a7902afb47fa, type: 3}
    - {fileID: 21300000, guid: adaf4430697cc314888a2c655b668358, type: 3}
    - {fileID: 21300000, guid: 02f8cf48825553e40b9cadd5a859ad41, type: 3}
    - {fileID: 21300000, guid: d0f7f8b84989c974c908f535ea16f904, type: 3}
    - {fileID: 21300000, guid: 0881c67920d19b846aff8b4d97f91939, type: 3}
    - {fileID: 21300000, guid: 09b91a0c608f65b44b215ea9708eb1ee, type: 3}
    - {fileID: 21300000, guid: 4da8c70ab56bd0040b8a57bea99dfd4b, type: 3}
    - {fileID: 21300000, guid: 6f81dd664952c1a44b32de23ba9621c2, type: 3}
    - {fileID: 21300000, guid: bc5044f446fe94a4b8231e962e12fb7e, type: 3}
    - {fileID: 21300000, guid: 38fc282bc0f9e914ab99ac59d888fc26, type: 3}
    - {fileID: 21300000, guid: 8904bf5ae1ff800449cb4f278e252ec7, type: 3}
  m_AnimationClipSettings:
    serializedVersion: 2
    m_AdditiveReferencePoseClip: {fileID: 0}
    m_AdditiveReferencePoseTime: 0
    m_StartTime: 0
    m_StopTime: 2.6666665
    m_OrientationOffsetY: 0
    m_Level: 0
    m_CycleOffset: 0
    m_HasAdditiveReferencePose: 0
    m_LoopTime: 1
    m_LoopBlend: 0
    m_LoopBlendOrientation: 0
    m_LoopBlendPositionY: 0
    m_LoopBlendPositionXZ: 0
    m_KeepOriginalOrientation: 0
    m_KeepOriginalPositionY: 1
    m_KeepOriginalPositionXZ: 0
    m_HeightFromFeet: 0
    m_Mirror: 0
  m_EditorCurves: []
  m_EulerEditorCurves: []
  m_HasGenericRootTransform: 0
  m_HasMotionFloatCurves: 0
  m_Events: []
