%YAML 1.1
%TAG !u! tag:unity3d.com,2011:
--- !u!74 &7400000
AnimationClip:
  m_ObjectHideFlags: 0
  m_CorrespondingSourceObject: {fileID: 0}
  m_PrefabInstance: {fileID: 0}
  m_PrefabAsset: {fileID: 0}
  m_Name: BDGQF_Walk
  serializedVersion: 6
  m_Legacy: 0
  m_Compressed: 0
  m_UseHighQualityCurve: 1
  m_RotationCurves: []
  m_CompressedRotationCurves: []
  m_EulerCurves: []
  m_PositionCurves: []
  m_ScaleCurves: []
  m_FloatCurves: []
  m_PPtrCurves:
  - curve:
    - time: 0
      value: {fileID: 21300000, guid: 743af24c377b8d84787ef861ba92f6c6, type: 3}
    - time: 0.083333336
      value: {fileID: 21300000, guid: 18e2478a931f5f944959c8512a0de18b, type: 3}
    - time: 0.16666667
      value: {fileID: 21300000, guid: 8dca8a5553927bf41ad657dd9cef93f6, type: 3}
    - time: 0.25
      value: {fileID: 21300000, guid: 12ef5e1200216f147aa1f1488ce232bf, type: 3}
    - time: 0.33333334
      value: {fileID: 21300000, guid: f88f28f70fc4f564887b8d4b2e2173d4, type: 3}
    - time: 0.41666666
      value: {fileID: 21300000, guid: 3ae0c0e6b2e63334299c53f15e9930fc, type: 3}
    - time: 0.5
      value: {fileID: 21300000, guid: 7334d2e6fb4794d4bb80fde776ca113e, type: 3}
    - time: 0.5833333
      value: {fileID: 21300000, guid: 4f2b6d43311cac347accfdb559a7e24e, type: 3}
    - time: 0.6666667
      value: {fileID: 21300000, guid: 3d78bd007238cad44872a1d9ad17bcd4, type: 3}
    - time: 0.75
      value: {fileID: 21300000, guid: 73e83aa64f8d4cc42bac0854c1fa2104, type: 3}
    - time: 0.8333333
      value: {fileID: 21300000, guid: 0c99e0396add38e428bf0915b041315d, type: 3}
    - time: 0.9166667
      value: {fileID: 21300000, guid: 7ae85c4df76a5b14e932fb1d4a1edcce, type: 3}
    - time: 1
      value: {fileID: 21300000, guid: 280a0c98dc9e77e43bc55ff607f6b173, type: 3}
    - time: 1.0833334
      value: {fileID: 21300000, guid: 1c9e92ec6c7f5784f92012435a12cf5a, type: 3}
    - time: 1.1666666
      value: {fileID: 21300000, guid: 3ba110ff2a589cc49981170b1c076f22, type: 3}
    - time: 1.25
      value: {fileID: 21300000, guid: 3fec45986d421d945aced7568952e1ed, type: 3}
    - time: 1.3333334
      value: {fileID: 21300000, guid: ab7b6658c10dbac41a56c753e5863ec4, type: 3}
    - time: 1.4166666
      value: {fileID: 21300000, guid: ab0b8c954cdfbd842b14d80b040c8f65, type: 3}
    - time: 1.5
      value: {fileID: 21300000, guid: e0781af7822c4144b88340238eaa3dbc, type: 3}
    - time: 1.5833334
      value: {fileID: 21300000, guid: 7cc3970548e1a8e49bfaa64ce791d83a, type: 3}
    - time: 1.6666666
      value: {fileID: 21300000, guid: 96a3c96fd89020b4b8bc2832df3027fc, type: 3}
    - time: 1.75
      value: {fileID: 21300000, guid: 0c649f89adb95ca418d81379ba192395, type: 3}
    - time: 1.8333334
      value: {fileID: 21300000, guid: f5a450eb09b330d439a96276340745c7, type: 3}
    - time: 1.9166666
      value: {fileID: 21300000, guid: 821cee3140d87ca46be968fba73e5809, type: 3}
    - time: 2
      value: {fileID: 21300000, guid: 111d1f424750898498c52df75abdfbf1, type: 3}
    - time: 2.0833333
      value: {fileID: 21300000, guid: 84004f01efd61c549af4c208a13e933b, type: 3}
    - time: 2.1666667
      value: {fileID: 21300000, guid: 7584373a315740444a509875e167ee38, type: 3}
    - time: 2.25
      value: {fileID: 21300000, guid: 0e037010c14a981428ab421ecabee4aa, type: 3}
    - time: 2.3333333
      value: {fileID: 21300000, guid: 4272fb4bae99b644ebf69eddefed88bf, type: 3}
    - time: 2.4166667
      value: {fileID: 21300000, guid: 849294f8843820f44a0b91d93db696d3, type: 3}
    - time: 2.5
      value: {fileID: 21300000, guid: a0abb40f844f34047b43ffabdff85f3c, type: 3}
    - time: 2.5833333
      value: {fileID: 21300000, guid: cfff497f9beac8843ac24e3231bf1d03, type: 3}
    attribute: m_Sprite
    path: 
    classID: 212
    script: {fileID: 0}
  m_SampleRate: 12
  m_WrapMode: 0
  m_Bounds:
    m_Center: {x: 0, y: 0, z: 0}
    m_Extent: {x: 0, y: 0, z: 0}
  m_ClipBindingConstant:
    genericBindings:
    - serializedVersion: 2
      path: 0
      attribute: 0
      script: {fileID: 0}
      typeID: 212
      customType: 23
      isPPtrCurve: 1
    pptrCurveMapping:
    - {fileID: 21300000, guid: 743af24c377b8d84787ef861ba92f6c6, type: 3}
    - {fileID: 21300000, guid: 18e2478a931f5f944959c8512a0de18b, type: 3}
    - {fileID: 21300000, guid: 8dca8a5553927bf41ad657dd9cef93f6, type: 3}
    - {fileID: 21300000, guid: 12ef5e1200216f147aa1f1488ce232bf, type: 3}
    - {fileID: 21300000, guid: f88f28f70fc4f564887b8d4b2e2173d4, type: 3}
    - {fileID: 21300000, guid: 3ae0c0e6b2e63334299c53f15e9930fc, type: 3}
    - {fileID: 21300000, guid: 7334d2e6fb4794d4bb80fde776ca113e, type: 3}
    - {fileID: 21300000, guid: 4f2b6d43311cac347accfdb559a7e24e, type: 3}
    - {fileID: 21300000, guid: 3d78bd007238cad44872a1d9ad17bcd4, type: 3}
    - {fileID: 21300000, guid: 73e83aa64f8d4cc42bac0854c1fa2104, type: 3}
    - {fileID: 21300000, guid: 0c99e0396add38e428bf0915b041315d, type: 3}
    - {fileID: 21300000, guid: 7ae85c4df76a5b14e932fb1d4a1edcce, type: 3}
    - {fileID: 21300000, guid: 280a0c98dc9e77e43bc55ff607f6b173, type: 3}
    - {fileID: 21300000, guid: 1c9e92ec6c7f5784f92012435a12cf5a, type: 3}
    - {fileID: 21300000, guid: 3ba110ff2a589cc49981170b1c076f22, type: 3}
    - {fileID: 21300000, guid: 3fec45986d421d945aced7568952e1ed, type: 3}
    - {fileID: 21300000, guid: ab7b6658c10dbac41a56c753e5863ec4, type: 3}
    - {fileID: 21300000, guid: ab0b8c954cdfbd842b14d80b040c8f65, type: 3}
    - {fileID: 21300000, guid: e0781af7822c4144b88340238eaa3dbc, type: 3}
    - {fileID: 21300000, guid: 7cc3970548e1a8e49bfaa64ce791d83a, type: 3}
    - {fileID: 21300000, guid: 96a3c96fd89020b4b8bc2832df3027fc, type: 3}
    - {fileID: 21300000, guid: 0c649f89adb95ca418d81379ba192395, type: 3}
    - {fileID: 21300000, guid: f5a450eb09b330d439a96276340745c7, type: 3}
    - {fileID: 21300000, guid: 821cee3140d87ca46be968fba73e5809, type: 3}
    - {fileID: 21300000, guid: 111d1f424750898498c52df75abdfbf1, type: 3}
    - {fileID: 21300000, guid: 84004f01efd61c549af4c208a13e933b, type: 3}
    - {fileID: 21300000, guid: 7584373a315740444a509875e167ee38, type: 3}
    - {fileID: 21300000, guid: 0e037010c14a981428ab421ecabee4aa, type: 3}
    - {fileID: 21300000, guid: 4272fb4bae99b644ebf69eddefed88bf, type: 3}
    - {fileID: 21300000, guid: 849294f8843820f44a0b91d93db696d3, type: 3}
    - {fileID: 21300000, guid: a0abb40f844f34047b43ffabdff85f3c, type: 3}
    - {fileID: 21300000, guid: cfff497f9beac8843ac24e3231bf1d03, type: 3}
  m_AnimationClipSettings:
    serializedVersion: 2
    m_AdditiveReferencePoseClip: {fileID: 0}
    m_AdditiveReferencePoseTime: 0
    m_StartTime: 0
    m_StopTime: 2.6666665
    m_OrientationOffsetY: 0
    m_Level: 0
    m_CycleOffset: 0
    m_HasAdditiveReferencePose: 0
    m_LoopTime: 1
    m_LoopBlend: 0
    m_LoopBlendOrientation: 0
    m_LoopBlendPositionY: 0
    m_LoopBlendPositionXZ: 0
    m_KeepOriginalOrientation: 0
    m_KeepOriginalPositionY: 1
    m_KeepOriginalPositionXZ: 0
    m_HeightFromFeet: 0
    m_Mirror: 0
  m_EditorCurves: []
  m_EulerEditorCurves: []
  m_HasGenericRootTransform: 0
  m_HasMotionFloatCurves: 0
  m_Events: []
